1.#INF 0 [488,54]
0 0 [488,53]
0 0 [488,53]
0 0 [486,53]
0 0 [487,54]
0 0 [487,54]
0 0 [486,53]
0 0 [488,54]
0 0 [487,54]
0 0 [487,54]
0 0 [488,54]
0 0 [490,54]
0 0 [492,56]
0.513511 5.13511 [454,86]
0.239875 2.39875 [436,98]
0.544712 5.44712 [477,65]
0.221812 2.21812 [493,53]
0 0 [494,53]
0.25969 2.5969 [476,65]
0.24438 2.4438 [493,52]
0 0 [494,53]
0 0 [493,53]
0 0 [493,53]
0.51696 5.1696 [454,88]
0 0 [456,86]
0.362118 3.62118 [481,64]
0.155675 1.55675 [492,53]
0 0 [486,59]
0 0 [492,52]
0 0 [491,53]
0 0 [492,53]
0 0 [492,52]
0 0 [492,53]
0.59312 5.9312 [449,90]
0.160571 1.60571 [461,79]
0 0 [456,79]
0.305085 3.05085 [478,64]
0.205163 2.05163 [493,55]
0 0 [494,54]
0 0 [493,55]
0 0 [494,53]
0 0 [494,53]
0 0 [495,53]
0 0 [497,51]
0 0 [498,50]
0 0 [498,49]
0.178618 1.78618 [485,60]
0.196801 1.96801 [500,51]
0.530761 5.30761 [460,73]
0 0 [469,70]
0.358519 3.58519 [497,53]
0 0 [497,55]
0.454917 4.54917 [462,80]
0.240054 2.40054 [481,67]
0.183133 1.83133 [495,56]
0 0 [487,62]
0 0 [488,61]
0 0 [495,56]
0 0 [495,57]
0 0 [496,56]
0.198802 1.98802 [484,63]
0.617091 6.17091 [439,98]
0.644522 6.44522 [485,65]
0.469265 4.69265 [453,91]
0.593876 5.93876 [495,56]
0 0 [494,55]
0 0 [494,55]
0 0 [488,62]
0 0 [485,63]
0 0 [486,62]
0.378617 3.78617 [458,79]
0.0608492 0 [477,60]
0.170536 1.70536 [490,56]
0 0 [484,57]
0 0 [487,54]
